Problem set 2
…
Warning: There was 1 warning in `mutate()`.
ℹ In argument: `AgeDecade = fct_collapse(AgeDecade, `60+` = c("60-69",
  "70+"))`.
Caused by warning:
! Unknown levels in `f`: 60-69, 70+

dat

# A tibble: 4,823 × 76
      ID SurveyYr Gender   Age AgeDecade AgeMonths Race1   Race    Education   
   <int> <fct>    <fct>  <int> <fct>         <int> <fct>   <fct>   <fct>       
 1 62163 2011_12  male      14 " 10-19"         NA Other   Asian   <NA>        
 2 62172 2011_12  female    43 " 40-49"         NA Black   Black   High School 
 3 62175 2011_12  male       5 " 0-9"           NA White   White   <NA>        
 4 62176 2011_12  female    34 " 30-39"         NA White   White   College Grad
 5 62180 2011_12  male      35 " 30-39"         NA White   White   College Grad
 6 62186 2011_12  female    17 " 10-19"         NA Black   Black   <NA>        
 7 62190 2011_12  female    15 " 10-19"         NA Mexican Mexican <NA>        
 8 62199 2011_12  male      57 " 50-59"         NA White   White   College Grad
 9 62199 2011_12  male      57 " 50-59"         NA White   White   College Grad
10 62199 2011_12  male      57 " 50-59"         NA White   White   College Grad
# ℹ 4,813 more rows
# ℹ 67 more variables: MaritalStatus <fct>, HHIncome <fct>, HHIncomeMid <int>,
#   Poverty <dbl>, HomeRooms <int>, HomeOwn <fct>, Work <fct>, Weight <dbl>,
#   Length <dbl>, HeadCirc <dbl>, Height <dbl>, BMI <dbl>,
#   BMICatUnder20yrs <fct>, BMI_WHO <fct>, Pulse <int>, BPSysAve <int>,
#   BPDiaAve <int>, BPSys1 <int>, BPDia1 <int>, BPSys2 <int>, BPDia2 <int>,
#   BPSys3 <int>, BPDia3 <int>, Testosterone <dbl>, DirectChol <dbl>, …
…
